EESchema Schematic File Version 4
EELAYER 30 0
EELAYER END
$Descr A4 11693 8268
encoding utf-8
Sheet 1 1
Title ""
Date ""
Rev ""
Comp ""
Comment1 ""
Comment2 ""
Comment3 ""
Comment4 ""
$EndDescr
Text GLabel 1550 850  0    50   Input ~ 0
+18V
$Comp
L Device:Ferrite_Bead_Small FB3
U 1 1 5E84EA7F
P 1950 850
F 0 "FB3" V 1713 850 50  0000 C CNN
F 1 "FB" V 1804 850 50  0000 C CNN
F 2 "" V 1880 850 50  0001 C CNN
F 3 "~" H 1950 850 50  0001 C CNN
	1    1950 850 
	0    1    1    0   
$EndComp
$Comp
L Device:C C1
U 1 1 5E84F562
P 1700 1050
F 0 "C1" H 1815 1096 50  0000 L CNN
F 1 "100n" H 1815 1005 50  0000 L CNN
F 2 "" H 1738 900 50  0001 C CNN
F 3 "~" H 1700 1050 50  0001 C CNN
	1    1700 1050
	1    0    0    -1  
$EndComp
$Comp
L Device:CP C9
U 1 1 5E84FB07
P 2500 1050
F 0 "C9" H 2618 1096 50  0000 L CNN
F 1 "470u" H 2618 1005 50  0000 L CNN
F 2 "" H 2538 900 50  0001 C CNN
F 3 "~" H 2500 1050 50  0001 C CNN
	1    2500 1050
	1    0    0    -1  
$EndComp
Wire Wire Line
	1700 850  1700 900 
Wire Wire Line
	2100 850  2100 900 
Wire Wire Line
	2500 850  2500 900 
$Comp
L power:GND #PWR01
U 1 1 5E850179
P 1700 1250
F 0 "#PWR01" H 1700 1000 50  0001 C CNN
F 1 "GND" H 1705 1077 50  0000 C CNN
F 2 "" H 1700 1250 50  0001 C CNN
F 3 "" H 1700 1250 50  0001 C CNN
	1    1700 1250
	1    0    0    -1  
$EndComp
Wire Wire Line
	1700 1200 1700 1250
$Comp
L power:GND #PWR09
U 1 1 5E85164D
P 2500 1250
F 0 "#PWR09" H 2500 1000 50  0001 C CNN
F 1 "GND" H 2505 1077 50  0000 C CNN
F 2 "" H 2500 1250 50  0001 C CNN
F 3 "" H 2500 1250 50  0001 C CNN
	1    2500 1250
	1    0    0    -1  
$EndComp
Wire Wire Line
	2500 1200 2500 1250
Text GLabel 1550 6400 0    50   Input ~ 0
-18V
Text GLabel 1550 3100 0    50   Input ~ 0
+6V
$Comp
L Device:Ferrite_Bead_Small FB1
U 1 1 5E866F06
P 2050 3100
F 0 "FB1" V 1813 3100 50  0000 C CNN
F 1 "FB" V 1904 3100 50  0000 C CNN
F 2 "" V 1980 3100 50  0001 C CNN
F 3 "~" H 2050 3100 50  0001 C CNN
	1    2050 3100
	0    1    1    0   
$EndComp
$Comp
L Device:C C2
U 1 1 5E866F10
P 1850 3300
F 0 "C2" H 1965 3346 50  0000 L CNN
F 1 "100n" H 1965 3255 50  0000 L CNN
F 2 "" H 1888 3150 50  0001 C CNN
F 3 "~" H 1850 3300 50  0001 C CNN
	1    1850 3300
	1    0    0    -1  
$EndComp
$Comp
L Device:C C6
U 1 1 5E866F1A
P 2250 3300
F 0 "C6" H 2365 3346 50  0000 L CNN
F 1 "100n" H 2365 3255 50  0000 L CNN
F 2 "" H 2288 3150 50  0001 C CNN
F 3 "~" H 2250 3300 50  0001 C CNN
	1    2250 3300
	1    0    0    -1  
$EndComp
$Comp
L Device:CP C10
U 1 1 5E866F24
P 2700 3300
F 0 "C10" H 2818 3346 50  0000 L CNN
F 1 "47u" H 2818 3255 50  0000 L CNN
F 2 "" H 2738 3150 50  0001 C CNN
F 3 "~" H 2700 3300 50  0001 C CNN
	1    2700 3300
	1    0    0    -1  
$EndComp
Wire Wire Line
	1550 3100 1850 3100
Wire Wire Line
	1850 3100 1850 3150
Connection ~ 1850 3100
Wire Wire Line
	1850 3100 1950 3100
Wire Wire Line
	2150 3100 2250 3100
Wire Wire Line
	2250 3100 2250 3150
Wire Wire Line
	2250 3100 2700 3100
Wire Wire Line
	2700 3100 2700 3150
Connection ~ 2250 3100
$Comp
L power:GND #PWR02
U 1 1 5E866F37
P 1850 3500
F 0 "#PWR02" H 1850 3250 50  0001 C CNN
F 1 "GND" H 1855 3327 50  0000 C CNN
F 2 "" H 1850 3500 50  0001 C CNN
F 3 "" H 1850 3500 50  0001 C CNN
	1    1850 3500
	1    0    0    -1  
$EndComp
Wire Wire Line
	1850 3450 1850 3500
$Comp
L power:GND #PWR06
U 1 1 5E866F42
P 2250 3500
F 0 "#PWR06" H 2250 3250 50  0001 C CNN
F 1 "GND" H 2255 3327 50  0000 C CNN
F 2 "" H 2250 3500 50  0001 C CNN
F 3 "" H 2250 3500 50  0001 C CNN
	1    2250 3500
	1    0    0    -1  
$EndComp
Wire Wire Line
	2250 3450 2250 3500
$Comp
L power:GND #PWR010
U 1 1 5E866F4D
P 2700 3500
F 0 "#PWR010" H 2700 3250 50  0001 C CNN
F 1 "GND" H 2705 3327 50  0000 C CNN
F 2 "" H 2700 3500 50  0001 C CNN
F 3 "" H 2700 3500 50  0001 C CNN
	1    2700 3500
	1    0    0    -1  
$EndComp
Wire Wire Line
	2700 3450 2700 3500
Connection ~ 2700 3100
Text GLabel 1550 4400 0    50   Input ~ 0
+6V
$Comp
L Device:Ferrite_Bead_Small FB2
U 1 1 5E86C811
P 2050 4400
F 0 "FB2" V 1813 4400 50  0000 C CNN
F 1 "FB" V 1904 4400 50  0000 C CNN
F 2 "" V 1980 4400 50  0001 C CNN
F 3 "~" H 2050 4400 50  0001 C CNN
	1    2050 4400
	0    1    1    0   
$EndComp
$Comp
L Device:C C3
U 1 1 5E86C81B
P 1850 4600
F 0 "C3" H 1965 4646 50  0000 L CNN
F 1 "100n" H 1965 4555 50  0000 L CNN
F 2 "" H 1888 4450 50  0001 C CNN
F 3 "~" H 1850 4600 50  0001 C CNN
	1    1850 4600
	1    0    0    -1  
$EndComp
$Comp
L Device:C C7
U 1 1 5E86C825
P 2250 4600
F 0 "C7" H 2365 4646 50  0000 L CNN
F 1 "100n" H 2365 4555 50  0000 L CNN
F 2 "" H 2288 4450 50  0001 C CNN
F 3 "~" H 2250 4600 50  0001 C CNN
	1    2250 4600
	1    0    0    -1  
$EndComp
$Comp
L Device:CP C11
U 1 1 5E86C82F
P 2700 4600
F 0 "C11" H 2818 4646 50  0000 L CNN
F 1 "47u" H 2818 4555 50  0000 L CNN
F 2 "" H 2738 4450 50  0001 C CNN
F 3 "~" H 2700 4600 50  0001 C CNN
	1    2700 4600
	1    0    0    -1  
$EndComp
Wire Wire Line
	1550 4400 1850 4400
Wire Wire Line
	1850 4400 1850 4450
Connection ~ 1850 4400
Wire Wire Line
	1850 4400 1950 4400
Wire Wire Line
	2150 4400 2250 4400
Wire Wire Line
	2250 4400 2250 4450
Wire Wire Line
	2250 4400 2700 4400
Wire Wire Line
	2700 4400 2700 4450
Connection ~ 2250 4400
$Comp
L power:GND #PWR03
U 1 1 5E86C842
P 1850 4800
F 0 "#PWR03" H 1850 4550 50  0001 C CNN
F 1 "GND" H 1855 4627 50  0000 C CNN
F 2 "" H 1850 4800 50  0001 C CNN
F 3 "" H 1850 4800 50  0001 C CNN
	1    1850 4800
	1    0    0    -1  
$EndComp
Wire Wire Line
	1850 4750 1850 4800
$Comp
L power:GND #PWR07
U 1 1 5E86C84D
P 2250 4800
F 0 "#PWR07" H 2250 4550 50  0001 C CNN
F 1 "GND" H 2255 4627 50  0000 C CNN
F 2 "" H 2250 4800 50  0001 C CNN
F 3 "" H 2250 4800 50  0001 C CNN
	1    2250 4800
	1    0    0    -1  
$EndComp
Wire Wire Line
	2250 4750 2250 4800
$Comp
L power:GND #PWR011
U 1 1 5E86C858
P 2700 4800
F 0 "#PWR011" H 2700 4550 50  0001 C CNN
F 1 "GND" H 2705 4627 50  0000 C CNN
F 2 "" H 2700 4800 50  0001 C CNN
F 3 "" H 2700 4800 50  0001 C CNN
	1    2700 4800
	1    0    0    -1  
$EndComp
Wire Wire Line
	2700 4750 2700 4800
Connection ~ 2700 4400
Text Notes 3700 3200 0    59   ~ 0
LT3042\n3V3
$Comp
L Device:Ferrite_Bead_Small FB5
U 1 1 5E88CA61
P 4550 3100
F 0 "FB5" V 4313 3100 50  0000 C CNN
F 1 "FB" V 4404 3100 50  0000 C CNN
F 2 "" V 4480 3100 50  0001 C CNN
F 3 "~" H 4550 3100 50  0001 C CNN
	1    4550 3100
	0    1    1    0   
$EndComp
$Comp
L Device:C C14
U 1 1 5E8A0FE8
P 3300 4600
F 0 "C14" H 3415 4646 50  0000 L CNN
F 1 "10u" H 3415 4555 50  0000 L CNN
F 2 "" H 3338 4450 50  0001 C CNN
F 3 "~" H 3300 4600 50  0001 C CNN
	1    3300 4600
	1    0    0    -1  
$EndComp
$Comp
L power:GND #PWR014
U 1 1 5E8A0FEE
P 3300 4800
F 0 "#PWR014" H 3300 4550 50  0001 C CNN
F 1 "GND" H 3305 4627 50  0000 C CNN
F 2 "" H 3300 4800 50  0001 C CNN
F 3 "" H 3300 4800 50  0001 C CNN
	1    3300 4800
	1    0    0    -1  
$EndComp
Wire Wire Line
	3300 4750 3300 4800
Wire Wire Line
	3300 4400 3300 4450
Connection ~ 3300 4400
Wire Notes Line style solid
	3650 4300 3650 4550
Wire Notes Line style solid
	3650 4550 4050 4550
Wire Notes Line style solid
	4050 4550 4050 4300
Wire Notes Line style solid
	4050 4300 3650 4300
$Comp
L Device:Ferrite_Bead_Small FB6
U 1 1 5E8A1013
P 4550 4400
F 0 "FB6" V 4313 4400 50  0000 C CNN
F 1 "FB" V 4404 4400 50  0000 C CNN
F 2 "" V 4480 4400 50  0001 C CNN
F 3 "~" H 4550 4400 50  0001 C CNN
	1    4550 4400
	0    1    1    0   
$EndComp
Wire Wire Line
	4450 4400 4200 4400
$Comp
L power:GND #PWR022
U 1 1 5E8A1021
P 4950 4950
F 0 "#PWR022" H 4950 4700 50  0001 C CNN
F 1 "GND" H 4955 4777 50  0000 C CNN
F 2 "" H 4950 4950 50  0001 C CNN
F 3 "" H 4950 4950 50  0001 C CNN
	1    4950 4950
	1    0    0    -1  
$EndComp
Wire Wire Line
	4950 4800 4950 4950
Wire Notes Line style solid
	5450 2400 5450 5250
Wire Notes Line style solid
	5450 5250 5900 5250
Wire Notes Line style solid
	5900 2400 5450 2400
Text Notes 5550 3800 0    79   ~ 0
ESS
Text GLabel 5450 3100 2    50   Input ~ 0
DVCC
Text GLabel 5450 4400 2    50   Input ~ 0
VCCA
$Comp
L Device:Ferrite_Bead_Small FB7
U 1 1 5E8AC1D5
P 4550 5600
F 0 "FB7" V 4313 5600 50  0000 C CNN
F 1 "FB" V 4404 5600 50  0000 C CNN
F 2 "" V 4480 5600 50  0001 C CNN
F 3 "~" H 4550 5600 50  0001 C CNN
	1    4550 5600
	0    1    1    0   
$EndComp
Wire Notes Line style solid
	5450 5450 5450 5850
Wire Notes Line style solid
	5450 5850 5900 5850
Wire Notes Line style solid
	5900 5850 5900 5450
Wire Notes Line style solid
	5900 5450 5450 5450
Text Notes 5550 5700 0    50   ~ 0
MCLK\ndiff/se
Wire Wire Line
	5650 5450 5650 5250
Text Notes 5550 4550 0    50   ~ 0
2x
Wire Notes Line style solid
	5900 5250 5900 2400
Wire Notes Line style solid
	3650 3250 4050 3250
Wire Notes Line style solid
	4050 3250 4050 3000
Wire Notes Line style solid
	4050 3000 3650 3000
Wire Notes Line style solid
	3650 3000 3650 3250
Text Notes 3700 1600 0    59   ~ 0
LT3042\n3V3
Wire Wire Line
	3600 1500 3650 1500
Wire Wire Line
	4600 1500 4550 1500
Wire Notes Line style solid
	3650 1650 4050 1650
Wire Notes Line style solid
	4050 1650 4050 1400
Wire Notes Line style solid
	4050 1400 3650 1400
Wire Notes Line style solid
	3650 1400 3650 1650
$Comp
L Device:C C18
U 1 1 5E8D800B
P 3600 1800
F 0 "C18" H 3715 1846 50  0000 L CNN
F 1 "10u" H 3715 1755 50  0000 L CNN
F 2 "" H 3638 1650 50  0001 C CNN
F 3 "~" H 3600 1800 50  0001 C CNN
	1    3600 1800
	1    0    0    -1  
$EndComp
$Comp
L power:GND #PWR018
U 1 1 5E8D8015
P 3600 2000
F 0 "#PWR018" H 3600 1750 50  0001 C CNN
F 1 "GND" H 3605 1827 50  0000 C CNN
F 2 "" H 3600 2000 50  0001 C CNN
F 3 "" H 3600 2000 50  0001 C CNN
	1    3600 2000
	1    0    0    -1  
$EndComp
Wire Wire Line
	3600 1950 3600 2000
Wire Wire Line
	3600 1650 3600 1500
Connection ~ 3600 1500
Wire Wire Line
	3600 1500 3600 850 
Text Notes 4650 1550 0    59   ~ 0
1612
Wire Notes Line style solid
	5000 1400 4600 1400
Wire Wire Line
	4600 2100 4550 2100
Wire Notes Line style solid
	4600 2250 5000 2250
Wire Notes Line style solid
	5000 2250 5000 1400
Wire Notes Line style solid
	4600 1400 4600 2250
Wire Wire Line
	4550 1500 4400 1500
$Comp
L Device:C C20
U 1 1 5E929F26
P 4750 1150
F 0 "C20" V 4498 1150 50  0000 C CNN
F 1 "100n" V 4589 1150 50  0000 C CNN
F 2 "" H 4788 1000 50  0001 C CNN
F 3 "~" H 4750 1150 50  0001 C CNN
	1    4750 1150
	0    1    1    0   
$EndComp
$Comp
L power:GND #PWR020
U 1 1 5E93544D
P 4600 1150
F 0 "#PWR020" H 4600 900 50  0001 C CNN
F 1 "GND" V 4605 1022 50  0000 R CNN
F 2 "" H 4600 1150 50  0001 C CNN
F 3 "" H 4600 1150 50  0001 C CNN
	1    4600 1150
	0    1    1    0   
$EndComp
Wire Wire Line
	4900 1150 4900 1400
Wire Wire Line
	4900 1150 4900 850 
Connection ~ 4900 1150
$Comp
L Device:CP C25
U 1 1 5E978DCA
P 5200 2250
F 0 "C25" H 5318 2296 50  0000 L CNN
F 1 "68u" H 5318 2205 50  0000 L CNN
F 2 "" H 5238 2100 50  0001 C CNN
F 3 "~" H 5200 2250 50  0001 C CNN
	1    5200 2250
	1    0    0    -1  
$EndComp
Connection ~ 5200 2100
Wire Wire Line
	5200 2100 5000 2100
Wire Wire Line
	5550 2100 5550 2400
$Comp
L power:GND #PWR026
U 1 1 5E97FDC0
P 5200 2400
F 0 "#PWR026" H 5200 2150 50  0001 C CNN
F 1 "GND" H 5205 2227 50  0000 C CNN
F 2 "" H 5200 2400 50  0001 C CNN
F 3 "" H 5200 2400 50  0001 C CNN
	1    5200 2400
	1    0    0    -1  
$EndComp
$Comp
L Device:CP C24
U 1 1 5E987BEA
P 5200 1650
F 0 "C24" H 5318 1696 50  0000 L CNN
F 1 "68u" H 5318 1605 50  0000 L CNN
F 2 "" H 5238 1500 50  0001 C CNN
F 3 "~" H 5200 1650 50  0001 C CNN
	1    5200 1650
	1    0    0    -1  
$EndComp
Connection ~ 5200 1500
Wire Wire Line
	5200 1500 5000 1500
$Comp
L power:GND #PWR025
U 1 1 5E987C02
P 5200 1800
F 0 "#PWR025" H 5200 1550 50  0001 C CNN
F 1 "GND" H 5205 1627 50  0000 C CNN
F 2 "" H 5200 1800 50  0001 C CNN
F 3 "" H 5200 1800 50  0001 C CNN
	1    5200 1800
	1    0    0    -1  
$EndComp
Wire Wire Line
	5800 1500 5800 2400
Text GLabel 5550 2400 3    50   Input ~ 0
AVCC_L
Text GLabel 5800 2400 3    50   Input ~ 0
AVCC_R
Text Notes 7800 1550 0    59   ~ 0
1622
Wire Notes Line style solid
	8150 1400 7750 1400
Wire Notes Line style solid
	7750 2250 8150 2250
Wire Notes Line style solid
	8150 2250 8150 1400
Wire Notes Line style solid
	7750 1400 7750 2250
$Comp
L Device:C C27
U 1 1 5E8CF775
P 6600 3200
F 0 "C27" V 6348 3200 50  0000 C CNN
F 1 "100n" V 6439 3200 50  0000 C CNN
F 2 "" H 6638 3050 50  0001 C CNN
F 3 "~" H 6600 3200 50  0001 C CNN
	1    6600 3200
	-1   0    0    1   
$EndComp
$Comp
L power:GND #PWR028
U 1 1 5E8CF77F
P 6600 3050
F 0 "#PWR028" H 6600 2800 50  0001 C CNN
F 1 "GND" V 6605 2922 50  0000 R CNN
F 2 "" H 6600 3050 50  0001 C CNN
F 3 "" H 6600 3050 50  0001 C CNN
	1    6600 3050
	-1   0    0    1   
$EndComp
$Comp
L Device:C C34
U 1 1 5E8CF78C
P 7900 2450
F 0 "C34" V 7648 2450 50  0000 C CNN
F 1 "100n" V 7739 2450 50  0000 C CNN
F 2 "" H 7938 2300 50  0001 C CNN
F 3 "~" H 7900 2450 50  0001 C CNN
	1    7900 2450
	0    1    1    0   
$EndComp
$Comp
L power:GND #PWR035
U 1 1 5E8CF796
P 7750 2450
F 0 "#PWR035" H 7750 2200 50  0001 C CNN
F 1 "GND" V 7755 2322 50  0000 R CNN
F 2 "" H 7750 2450 50  0001 C CNN
F 3 "" H 7750 2450 50  0001 C CNN
	1    7750 2450
	0    1    1    0   
$EndComp
Wire Wire Line
	8050 2450 8100 2450
Connection ~ 8100 2450
Wire Wire Line
	8100 2450 8100 2250
Wire Wire Line
	8100 6400 8100 2600
$Comp
L Device:CP C36
U 1 1 5E8CF7A4
P 8350 2250
F 0 "C36" H 8468 2296 50  0000 L CNN
F 1 "270u" H 8468 2205 50  0000 L CNN
F 2 "" H 8388 2100 50  0001 C CNN
F 3 "~" H 8350 2250 50  0001 C CNN
	1    8350 2250
	1    0    0    -1  
$EndComp
Wire Wire Line
	8350 2100 8150 2100
$Comp
L power:GND #PWR037
U 1 1 5E8CF7AF
P 8350 2400
F 0 "#PWR037" H 8350 2150 50  0001 C CNN
F 1 "GND" H 8355 2227 50  0000 C CNN
F 2 "" H 8350 2400 50  0001 C CNN
F 3 "" H 8350 2400 50  0001 C CNN
	1    8350 2400
	1    0    0    -1  
$EndComp
$Comp
L Device:CP C35
U 1 1 5E8CF7B9
P 8350 1650
F 0 "C35" H 8468 1696 50  0000 L CNN
F 1 "270u" H 8468 1605 50  0000 L CNN
F 2 "" H 8388 1500 50  0001 C CNN
F 3 "~" H 8350 1650 50  0001 C CNN
	1    8350 1650
	1    0    0    -1  
$EndComp
Wire Wire Line
	8350 1500 8150 1500
$Comp
L power:GND #PWR036
U 1 1 5E8CF7C4
P 8350 1800
F 0 "#PWR036" H 8350 1550 50  0001 C CNN
F 1 "GND" H 8355 1627 50  0000 C CNN
F 2 "" H 8350 1800 50  0001 C CNN
F 3 "" H 8350 1800 50  0001 C CNN
	1    8350 1800
	1    0    0    -1  
$EndComp
Wire Notes Line style solid
	7650 1400 7650 2250
Wire Notes Line style solid
	7650 2250 7250 2250
Wire Notes Line style solid
	7250 2250 7250 1400
Wire Notes Line style solid
	7250 1400 7650 1400
Text Notes 7300 2200 0    59   ~ 0
1612\n\ng+1\n\n\n\n\ng-1
Wire Wire Line
	7750 1500 7650 1500
Wire Wire Line
	7750 2150 7650 2150
Wire Wire Line
	7200 1500 7200 1650
Wire Wire Line
	7200 2150 7250 2150
Connection ~ 7200 1500
Wire Wire Line
	7200 1500 7250 1500
$Comp
L Device:C C32
U 1 1 5E8CF7DA
P 7250 1150
F 0 "C32" V 6998 1150 50  0000 C CNN
F 1 "100n" V 7089 1150 50  0000 C CNN
F 2 "" H 7288 1000 50  0001 C CNN
F 3 "~" H 7250 1150 50  0001 C CNN
	1    7250 1150
	0    1    1    0   
$EndComp
$Comp
L power:GND #PWR033
U 1 1 5E8CF7E4
P 7100 1150
F 0 "#PWR033" H 7100 900 50  0001 C CNN
F 1 "GND" V 7105 1022 50  0000 R CNN
F 2 "" H 7100 1150 50  0001 C CNN
F 3 "" H 7100 1150 50  0001 C CNN
	1    7100 1150
	0    1    1    0   
$EndComp
Wire Wire Line
	7400 1150 7400 1400
Wire Wire Line
	7400 1150 7400 850 
Connection ~ 7400 1150
$Comp
L Device:C C31
U 1 1 5E8CF7F1
P 7150 2450
F 0 "C31" V 6898 2450 50  0000 C CNN
F 1 "100n" V 6989 2450 50  0000 C CNN
F 2 "" H 7188 2300 50  0001 C CNN
F 3 "~" H 7150 2450 50  0001 C CNN
	1    7150 2450
	0    1    1    0   
$EndComp
$Comp
L power:GND #PWR030
U 1 1 5E8CF7FB
P 7000 2450
F 0 "#PWR030" H 7000 2200 50  0001 C CNN
F 1 "GND" V 7005 2322 50  0000 R CNN
F 2 "" H 7000 2450 50  0001 C CNN
F 3 "" H 7000 2450 50  0001 C CNN
	1    7000 2450
	0    1    1    0   
$EndComp
Wire Wire Line
	7300 2450 7400 2450
Wire Wire Line
	7400 2450 7400 2250
Wire Wire Line
	7400 2450 7400 2600
Wire Wire Line
	7400 2600 8100 2600
Connection ~ 7400 2450
Connection ~ 8100 2600
Wire Wire Line
	8100 2600 8100 2450
Connection ~ 7400 850 
Wire Wire Line
	7400 850  8050 850 
Wire Notes Line style solid
	6400 3550 6800 3550
Wire Notes Line style solid
	6800 3550 6800 4750
Wire Notes Line style solid
	6800 4750 6400 4750
Wire Notes Line style solid
	6400 4750 6400 3550
Text Notes 6450 3900 0    59   ~ 0
2x\n49990\nI/V
Wire Wire Line
	6400 3650 5900 3650
Wire Wire Line
	5900 3750 6400 3750
Wire Wire Line
	6400 4650 5900 4650
Wire Wire Line
	5900 4550 6400 4550
Wire Wire Line
	8050 850  8050 1250
Wire Wire Line
	8850 1500 8350 1500
Connection ~ 8350 1500
$Comp
L Device:C C28
U 1 1 5E9D155F
P 6600 5050
F 0 "C28" V 6348 5050 50  0000 C CNN
F 1 "100n" V 6439 5050 50  0000 C CNN
F 2 "" H 6638 4900 50  0001 C CNN
F 3 "~" H 6600 5050 50  0001 C CNN
	1    6600 5050
	1    0    0    -1  
$EndComp
$Comp
L power:GND #PWR029
U 1 1 5E9D1569
P 6600 5200
F 0 "#PWR029" H 6600 4950 50  0001 C CNN
F 1 "GND" V 6605 5072 50  0000 R CNN
F 2 "" H 6600 5200 50  0001 C CNN
F 3 "" H 6600 5200 50  0001 C CNN
	1    6600 5200
	1    0    0    -1  
$EndComp
Wire Wire Line
	8750 4800 8750 2100
Wire Wire Line
	8750 2100 8350 2100
Connection ~ 8350 2100
Connection ~ 8750 4800
Text GLabel 8850 3600 3    50   Input ~ 0
+15V
Wire Wire Line
	8850 3600 8850 3500
Connection ~ 8850 3500
Text GLabel 8850 4700 1    50   Input ~ 0
-15V
Wire Wire Line
	8750 4800 8850 4800
Wire Wire Line
	8850 4800 8850 4700
$Comp
L Device:C C38
U 1 1 5EA2B77B
P 9600 3200
F 0 "C38" V 9348 3200 50  0000 C CNN
F 1 "100n" V 9439 3200 50  0000 C CNN
F 2 "" H 9638 3050 50  0001 C CNN
F 3 "~" H 9600 3200 50  0001 C CNN
	1    9600 3200
	-1   0    0    1   
$EndComp
$Comp
L power:GND #PWR039
U 1 1 5EA2B781
P 9600 3050
F 0 "#PWR039" H 9600 2800 50  0001 C CNN
F 1 "GND" V 9605 2922 50  0000 R CNN
F 2 "" H 9600 3050 50  0001 C CNN
F 3 "" H 9600 3050 50  0001 C CNN
	1    9600 3050
	-1   0    0    1   
$EndComp
Wire Notes Line style solid
	9400 3550 9800 3550
Wire Notes Line style solid
	9800 3550 9800 4750
Wire Notes Line style solid
	9800 4750 9400 4750
Wire Notes Line style solid
	9400 4750 9400 3550
Text Notes 9450 3900 0    59   ~ 0
2x\n49990\nLPF
$Comp
L Device:C C42
U 1 1 5EA2B797
P 10100 3200
F 0 "C42" V 9848 3200 50  0000 C CNN
F 1 "100n" V 9939 3200 50  0000 C CNN
F 2 "" H 10138 3050 50  0001 C CNN
F 3 "~" H 10100 3200 50  0001 C CNN
	1    10100 3200
	-1   0    0    1   
$EndComp
$Comp
L power:GND #PWR043
U 1 1 5EA2B79D
P 10100 3050
F 0 "#PWR043" H 10100 2800 50  0001 C CNN
F 1 "GND" V 10105 2922 50  0000 R CNN
F 2 "" H 10100 3050 50  0001 C CNN
F 3 "" H 10100 3050 50  0001 C CNN
	1    10100 3050
	-1   0    0    1   
$EndComp
Wire Wire Line
	9600 3350 9600 3450
Wire Wire Line
	10100 3350 10100 3450
Connection ~ 9600 3450
Wire Wire Line
	9600 3450 9600 3550
$Comp
L Device:C C43
U 1 1 5EA2B7AB
P 10100 5050
F 0 "C43" V 9848 5050 50  0000 C CNN
F 1 "100n" V 9939 5050 50  0000 C CNN
F 2 "" H 10138 4900 50  0001 C CNN
F 3 "~" H 10100 5050 50  0001 C CNN
	1    10100 5050
	1    0    0    -1  
$EndComp
$Comp
L power:GND #PWR044
U 1 1 5EA2B7B1
P 10100 5200
F 0 "#PWR044" H 10100 4950 50  0001 C CNN
F 1 "GND" V 10105 5072 50  0000 R CNN
F 2 "" H 10100 5200 50  0001 C CNN
F 3 "" H 10100 5200 50  0001 C CNN
	1    10100 5200
	1    0    0    -1  
$EndComp
$Comp
L Device:C C39
U 1 1 5EA2B7B7
P 9600 5050
F 0 "C39" V 9348 5050 50  0000 C CNN
F 1 "100n" V 9439 5050 50  0000 C CNN
F 2 "" H 9638 4900 50  0001 C CNN
F 3 "~" H 9600 5050 50  0001 C CNN
	1    9600 5050
	1    0    0    -1  
$EndComp
$Comp
L power:GND #PWR040
U 1 1 5EA2B7BD
P 9600 5200
F 0 "#PWR040" H 9600 4950 50  0001 C CNN
F 1 "GND" V 9605 5072 50  0000 R CNN
F 2 "" H 9600 5200 50  0001 C CNN
F 3 "" H 9600 5200 50  0001 C CNN
	1    9600 5200
	1    0    0    -1  
$EndComp
Wire Wire Line
	9600 4900 9600 4850
Connection ~ 9600 4850
Wire Wire Line
	9600 4850 9600 4750
Text GLabel 10150 4100 2    50   Input ~ 0
Out+
Text GLabel 10150 4200 2    50   Input ~ 0
Out-
$Comp
L Device:C C33
U 1 1 5E87AEFC
P 7900 1250
F 0 "C33" V 7648 1250 50  0000 C CNN
F 1 "100n" V 7739 1250 50  0000 C CNN
F 2 "" H 7938 1100 50  0001 C CNN
F 3 "~" H 7900 1250 50  0001 C CNN
	1    7900 1250
	0    1    1    0   
$EndComp
$Comp
L power:GND #PWR034
U 1 1 5E87AF06
P 7750 1250
F 0 "#PWR034" H 7750 1000 50  0001 C CNN
F 1 "GND" V 7755 1122 50  0000 R CNN
F 2 "" H 7750 1250 50  0001 C CNN
F 3 "" H 7750 1250 50  0001 C CNN
	1    7750 1250
	0    1    1    0   
$EndComp
Connection ~ 8050 1250
Wire Wire Line
	8050 1250 8050 1400
Wire Wire Line
	3300 3100 3300 3150
$Comp
L power:GND #PWR013
U 1 1 5E876314
P 3300 3500
F 0 "#PWR013" H 3300 3250 50  0001 C CNN
F 1 "GND" H 3305 3327 50  0000 C CNN
F 2 "" H 3300 3500 50  0001 C CNN
F 3 "" H 3300 3500 50  0001 C CNN
	1    3300 3500
	1    0    0    -1  
$EndComp
Wire Wire Line
	3300 3450 3300 3500
$Comp
L Device:C C13
U 1 1 5E87630A
P 3300 3300
F 0 "C13" H 3415 3346 50  0000 L CNN
F 1 "10u" H 3415 3255 50  0000 L CNN
F 2 "" H 3338 3150 50  0001 C CNN
F 3 "~" H 3300 3300 50  0001 C CNN
	1    3300 3300
	1    0    0    -1  
$EndComp
Connection ~ 2100 850 
Wire Wire Line
	2100 850  2500 850 
Wire Wire Line
	2050 850  2100 850 
Connection ~ 1700 850 
Wire Wire Line
	1700 850  1850 850 
Wire Wire Line
	1550 850  1700 850 
Wire Wire Line
	3300 4400 3650 4400
Wire Wire Line
	4450 5600 4200 5600
Wire Wire Line
	4200 5600 4200 4400
Wire Wire Line
	4200 4400 4050 4400
Text Notes 4300 3700 0    50   ~ 0
FB/C repeat\n3x for I2S isos\n+ 1x 100n/FB\nfor RESET iso\n+ 1x 100n/FB\nfor I2C iso
Text Notes 4350 4850 0    50   ~ 0
FB/C repeat\n2x for VCCA\npins
Connection ~ 6600 4800
Wire Wire Line
	6600 4800 6600 4750
Wire Wire Line
	6600 4900 6600 4800
Connection ~ 6600 3500
Wire Wire Line
	6600 3500 6600 3550
Wire Wire Line
	6600 3350 6600 3500
Wire Wire Line
	9800 4200 10150 4200
Wire Wire Line
	10150 4100 9800 4100
Wire Wire Line
	9600 4850 10100 4850
Wire Wire Line
	6600 4800 7000 4800
Wire Wire Line
	6600 3500 7000 3500
Wire Wire Line
	5200 1500 5800 1500
Wire Wire Line
	5200 2100 5550 2100
Wire Wire Line
	8850 1500 8850 3450
Wire Wire Line
	6800 4200 9400 4200
Wire Wire Line
	6800 4100 9400 4100
Wire Wire Line
	9600 3450 10100 3450
Wire Wire Line
	2800 6750 2800 6800
$Comp
L power:GND #PWR012
U 1 1 5E853DC4
P 2800 6800
F 0 "#PWR012" H 2800 6550 50  0001 C CNN
F 1 "GND" H 2805 6627 50  0000 C CNN
F 2 "" H 2800 6800 50  0001 C CNN
F 3 "" H 2800 6800 50  0001 C CNN
	1    2800 6800
	1    0    0    -1  
$EndComp
Wire Wire Line
	2350 6750 2350 6800
$Comp
L power:GND #PWR08
U 1 1 5E853DB9
P 2350 6800
F 0 "#PWR08" H 2350 6550 50  0001 C CNN
F 1 "GND" H 2355 6627 50  0000 C CNN
F 2 "" H 2350 6800 50  0001 C CNN
F 3 "" H 2350 6800 50  0001 C CNN
	1    2350 6800
	1    0    0    -1  
$EndComp
Wire Wire Line
	1950 6750 1950 6800
$Comp
L power:GND #PWR04
U 1 1 5E853DAE
P 1950 6800
F 0 "#PWR04" H 1950 6550 50  0001 C CNN
F 1 "GND" H 1955 6627 50  0000 C CNN
F 2 "" H 1950 6800 50  0001 C CNN
F 3 "" H 1950 6800 50  0001 C CNN
	1    1950 6800
	1    0    0    -1  
$EndComp
Connection ~ 2350 6400
Wire Wire Line
	2800 6400 2800 6450
Wire Wire Line
	2350 6400 2800 6400
Wire Wire Line
	2350 6400 2350 6450
Wire Wire Line
	2250 6400 2350 6400
Wire Wire Line
	1950 6400 2050 6400
Wire Wire Line
	1950 6400 1950 6450
$Comp
L Device:CP C12
U 1 1 5E853D9B
P 2800 6600
F 0 "C12" H 2918 6646 50  0000 L CNN
F 1 "470u" H 2918 6555 50  0000 L CNN
F 2 "" H 2838 6450 50  0001 C CNN
F 3 "~" H 2800 6600 50  0001 C CNN
	1    2800 6600
	1    0    0    -1  
$EndComp
$Comp
L Device:C C8
U 1 1 5E853D91
P 2350 6600
F 0 "C8" H 2465 6646 50  0000 L CNN
F 1 "100n" H 2465 6555 50  0000 L CNN
F 2 "" H 2388 6450 50  0001 C CNN
F 3 "~" H 2350 6600 50  0001 C CNN
	1    2350 6600
	1    0    0    -1  
$EndComp
$Comp
L Device:C C4
U 1 1 5E853D87
P 1950 6600
F 0 "C4" H 2065 6646 50  0000 L CNN
F 1 "100n" H 2065 6555 50  0000 L CNN
F 2 "" H 1988 6450 50  0001 C CNN
F 3 "~" H 1950 6600 50  0001 C CNN
	1    1950 6600
	1    0    0    -1  
$EndComp
$Comp
L Device:Ferrite_Bead_Small FB4
U 1 1 5E853D7D
P 2150 6400
F 0 "FB4" V 1913 6400 50  0000 C CNN
F 1 "FB" V 2004 6400 50  0000 C CNN
F 2 "" V 2080 6400 50  0001 C CNN
F 3 "~" H 2150 6400 50  0001 C CNN
	1    2150 6400
	0    1    1    0   
$EndComp
Connection ~ 1950 6400
Wire Wire Line
	1550 6400 1950 6400
Wire Wire Line
	2100 1200 2100 1250
$Comp
L power:GND #PWR05
U 1 1 5E850B4F
P 2100 1250
F 0 "#PWR05" H 2100 1000 50  0001 C CNN
F 1 "GND" H 2105 1077 50  0000 C CNN
F 2 "" H 2100 1250 50  0001 C CNN
F 3 "" H 2100 1250 50  0001 C CNN
	1    2100 1250
	1    0    0    -1  
$EndComp
$Comp
L Device:C C5
U 1 1 5E84F84C
P 2100 1050
F 0 "C5" H 2215 1096 50  0000 L CNN
F 1 "100n" H 2215 1005 50  0000 L CNN
F 2 "" H 2138 900 50  0001 C CNN
F 3 "~" H 2100 1050 50  0001 C CNN
	1    2100 1050
	1    0    0    -1  
$EndComp
$Comp
L power:GND #PWR021
U 1 1 5EC8260B
P 4800 2400
F 0 "#PWR021" H 4800 2150 50  0001 C CNN
F 1 "GND" H 4805 2227 50  0000 C CNN
F 2 "" H 4800 2400 50  0001 C CNN
F 3 "" H 4800 2400 50  0001 C CNN
	1    4800 2400
	1    0    0    -1  
$EndComp
Wire Wire Line
	4800 2400 4800 2250
Text Notes 4700 2200 0    59   ~ 0
VEE\nto\nGND!
Wire Wire Line
	2700 3100 3300 3100
Wire Wire Line
	2700 4400 3300 4400
Wire Wire Line
	4650 3100 5000 3100
Wire Wire Line
	4650 5600 4950 5600
$Comp
L Device:C C21
U 1 1 60FAB94F
P 4950 4650
F 0 "C21" H 5065 4696 50  0000 L CNN
F 1 "1/0.1u" H 5065 4605 50  0000 L CNN
F 2 "" H 4988 4500 50  0001 C CNN
F 3 "~" H 4950 4650 50  0001 C CNN
	1    4950 4650
	1    0    0    -1  
$EndComp
Connection ~ 4200 4400
Wire Wire Line
	4650 4400 4950 4400
Wire Wire Line
	4950 4500 4950 4400
Connection ~ 4950 4400
Wire Wire Line
	4950 4400 5450 4400
$Comp
L power:GND #PWR024
U 1 1 610F5C99
P 5000 3650
F 0 "#PWR024" H 5000 3400 50  0001 C CNN
F 1 "GND" H 5005 3477 50  0000 C CNN
F 2 "" H 5000 3650 50  0001 C CNN
F 3 "" H 5000 3650 50  0001 C CNN
	1    5000 3650
	1    0    0    -1  
$EndComp
Wire Wire Line
	5000 3500 5000 3650
$Comp
L Device:C C23
U 1 1 610F5F82
P 5000 3350
F 0 "C23" H 5115 3396 50  0000 L CNN
F 1 "1/0.1u" H 5115 3305 50  0000 L CNN
F 2 "" H 5038 3200 50  0001 C CNN
F 3 "~" H 5000 3350 50  0001 C CNN
	1    5000 3350
	1    0    0    -1  
$EndComp
Wire Wire Line
	5000 3200 5000 3100
Connection ~ 5000 3100
Wire Wire Line
	5000 3100 5450 3100
$Comp
L power:GND #PWR023
U 1 1 6112D16A
P 4950 6150
F 0 "#PWR023" H 4950 5900 50  0001 C CNN
F 1 "GND" H 4955 5977 50  0000 C CNN
F 2 "" H 4950 6150 50  0001 C CNN
F 3 "" H 4950 6150 50  0001 C CNN
	1    4950 6150
	1    0    0    -1  
$EndComp
Wire Wire Line
	4950 6000 4950 6150
$Comp
L Device:C C22
U 1 1 6112D469
P 4950 5850
F 0 "C22" H 5065 5896 50  0000 L CNN
F 1 "1/0.1u" H 5065 5805 50  0000 L CNN
F 2 "" H 4988 5700 50  0001 C CNN
F 3 "~" H 4950 5850 50  0001 C CNN
	1    4950 5850
	1    0    0    -1  
$EndComp
Wire Wire Line
	4950 5700 4950 5600
Connection ~ 4950 5600
Wire Wire Line
	4950 5600 5450 5600
$Comp
L Device:C C29
U 1 1 6115F1F9
P 7000 3200
F 0 "C29" V 6748 3200 50  0000 C CNN
F 1 "100n" V 6839 3200 50  0000 C CNN
F 2 "" H 7038 3050 50  0001 C CNN
F 3 "~" H 7000 3200 50  0001 C CNN
	1    7000 3200
	-1   0    0    1   
$EndComp
$Comp
L power:GND #PWR031
U 1 1 6115F53B
P 7000 3050
F 0 "#PWR031" H 7000 2800 50  0001 C CNN
F 1 "GND" V 7005 2922 50  0000 R CNN
F 2 "" H 7000 3050 50  0001 C CNN
F 3 "" H 7000 3050 50  0001 C CNN
	1    7000 3050
	-1   0    0    1   
$EndComp
Wire Wire Line
	7000 3350 7000 3500
Connection ~ 7000 3500
Wire Wire Line
	7000 3500 8850 3500
$Comp
L Device:C C30
U 1 1 61171CE2
P 7000 5050
F 0 "C30" V 6748 5050 50  0000 C CNN
F 1 "100n" V 6839 5050 50  0000 C CNN
F 2 "" H 7038 4900 50  0001 C CNN
F 3 "~" H 7000 5050 50  0001 C CNN
	1    7000 5050
	1    0    0    -1  
$EndComp
$Comp
L power:GND #PWR032
U 1 1 61172196
P 7000 5200
F 0 "#PWR032" H 7000 4950 50  0001 C CNN
F 1 "GND" V 7005 5072 50  0000 R CNN
F 2 "" H 7000 5200 50  0001 C CNN
F 3 "" H 7000 5200 50  0001 C CNN
	1    7000 5200
	1    0    0    -1  
$EndComp
Wire Wire Line
	7000 4900 7000 4800
Connection ~ 7000 4800
Wire Wire Line
	7000 4800 8750 4800
Wire Wire Line
	10100 4850 10100 4900
$Comp
L Device:R R?
U 1 1 60FD066F
P 4250 1500
F 0 "R?" V 4043 1500 50  0000 C CNN
F 1 "1k" V 4134 1500 50  0000 C CNN
F 2 "" V 4180 1500 50  0001 C CNN
F 3 "~" H 4250 1500 50  0001 C CNN
	1    4250 1500
	0    1    1    0   
$EndComp
Wire Wire Line
	4100 1500 4050 1500
Connection ~ 4900 850 
$Comp
L Device:C C?
U 1 1 60FF4E87
P 4150 1800
F 0 "C?" H 4265 1846 50  0000 L CNN
F 1 "220u" H 4265 1755 50  0000 L CNN
F 2 "" H 4188 1650 50  0001 C CNN
F 3 "~" H 4150 1800 50  0001 C CNN
	1    4150 1800
	1    0    0    -1  
$EndComp
$Comp
L power:GND #PWR?
U 1 1 60FF4FB7
P 4150 2000
F 0 "#PWR?" H 4150 1750 50  0001 C CNN
F 1 "GND" H 4155 1827 50  0000 C CNN
F 2 "" H 4150 2000 50  0001 C CNN
F 3 "" H 4150 2000 50  0001 C CNN
	1    4150 2000
	1    0    0    -1  
$EndComp
Wire Wire Line
	4150 1950 4150 2000
Wire Wire Line
	4150 1650 4550 1650
Wire Wire Line
	4900 850  6250 850 
Text Notes 6350 1600 0    59   ~ 0
LT3042\n3V3
Wire Wire Line
	6250 1500 6300 1500
Wire Notes Line style solid
	6300 1650 6700 1650
Wire Notes Line style solid
	6700 1650 6700 1400
Wire Notes Line style solid
	6700 1400 6300 1400
Wire Notes Line style solid
	6300 1400 6300 1650
$Comp
L Device:C C?
U 1 1 610332EA
P 6250 1800
F 0 "C?" H 6365 1846 50  0000 L CNN
F 1 "10u" H 6365 1755 50  0000 L CNN
F 2 "" H 6288 1650 50  0001 C CNN
F 3 "~" H 6250 1800 50  0001 C CNN
	1    6250 1800
	1    0    0    -1  
$EndComp
$Comp
L power:GND #PWR?
U 1 1 610332F4
P 6250 2000
F 0 "#PWR?" H 6250 1750 50  0001 C CNN
F 1 "GND" H 6255 1827 50  0000 C CNN
F 2 "" H 6250 2000 50  0001 C CNN
F 3 "" H 6250 2000 50  0001 C CNN
	1    6250 2000
	1    0    0    -1  
$EndComp
Wire Wire Line
	6250 1950 6250 2000
Wire Wire Line
	6250 1650 6250 1500
Connection ~ 6250 1500
Wire Wire Line
	6250 1500 6250 850 
$Comp
L Device:R R?
U 1 1 6103330D
P 6900 1500
F 0 "R?" V 6693 1500 50  0000 C CNN
F 1 "10k" V 6784 1500 50  0000 C CNN
F 2 "" V 6830 1500 50  0001 C CNN
F 3 "~" H 6900 1500 50  0001 C CNN
	1    6900 1500
	0    1    1    0   
$EndComp
Wire Wire Line
	6750 1500 6700 1500
$Comp
L Device:C C?
U 1 1 61033318
P 6800 1800
F 0 "C?" H 6915 1846 50  0000 L CNN
F 1 "22u" H 6915 1755 50  0000 L CNN
F 2 "" H 6838 1650 50  0001 C CNN
F 3 "~" H 6800 1800 50  0001 C CNN
	1    6800 1800
	1    0    0    -1  
$EndComp
$Comp
L power:GND #PWR?
U 1 1 61033322
P 6800 2000
F 0 "#PWR?" H 6800 1750 50  0001 C CNN
F 1 "GND" H 6805 1827 50  0000 C CNN
F 2 "" H 6800 2000 50  0001 C CNN
F 3 "" H 6800 2000 50  0001 C CNN
	1    6800 2000
	1    0    0    -1  
$EndComp
Wire Wire Line
	6800 1950 6800 2000
Wire Wire Line
	6800 1650 7200 1650
Connection ~ 6250 850 
Wire Wire Line
	6250 850  7400 850 
Wire Wire Line
	7050 1500 7200 1500
Connection ~ 7200 1650
Wire Wire Line
	7200 1650 7200 2150
Text Notes 3700 4500 0    59   ~ 0
LT3042\n3V3
Wire Wire Line
	4450 3100 4050 3100
Wire Wire Line
	3300 3100 3650 3100
Connection ~ 3300 3100
Wire Wire Line
	2500 850  3600 850 
Connection ~ 2500 850 
Wire Wire Line
	8100 6400 2800 6400
Connection ~ 2800 6400
Wire Wire Line
	9600 3450 8850 3450
Connection ~ 8850 3450
Wire Wire Line
	8850 3450 8850 3500
Wire Wire Line
	9600 4850 8750 4850
Wire Wire Line
	8750 4850 8750 4800
Connection ~ 3600 850 
Wire Wire Line
	4550 1500 4550 1650
Wire Wire Line
	3600 850  4900 850 
Connection ~ 4550 1500
Connection ~ 4550 1650
Wire Wire Line
	4550 1650 4550 2100
$EndSCHEMATC
